%YAML 1.1
%TAG !u! tag:unity3d.com,2011:
--- !u!221 &22100000
AnimatorOverrideController:
  m_ObjectHideFlags: 0
  m_CorrespondingSourceObject: {fileID: 0}
  m_PrefabInstance: {fileID: 0}
  m_PrefabAsset: {fileID: 0}
  m_Name: ErrorPopup
  m_Controller: {fileID: 9100000, guid: 1fbd06469dd5ea64d96b8b811922fb4d, type: 2}
  m_Clips:
  - m_OriginalClip: {fileID: 7400000, guid: df1b043cc8814f449b481f8cc3054403, type: 2}
    m_OverrideClip: {fileID: 7400000, guid: 76dde37fb64ea654a8ddf8d1c3ace244, type: 2}
